<?xml version="1.0" encoding="UTF-8" standalone="no"?>
<svg
   xmlns:dc="http://purl.org/dc/elements/1.1/"
   xmlns:cc="http://creativecommons.org/ns#"
   xmlns:rdf="http://www.w3.org/1999/02/22-rdf-syntax-ns#"
   xmlns:svg="http://www.w3.org/2000/svg"
   xmlns="http://www.w3.org/2000/svg"
   id="svg3719"
   version="1.1"
   viewBox="0 0 4.2333332 4.2333334"
   height="16"
   width="16">
  <defs
     id="defs3713" />
  <metadata
     id="metadata3716">
    <rdf:RDF>
      <cc:Work
         rdf:about="">
        <dc:format>image/svg+xml</dc:format>
        <dc:type
           rdf:resource="http://purl.org/dc/dcmitype/StillImage" />
        <dc:title></dc:title>
      </cc:Work>
    </rdf:RDF>
  </metadata>
  <g
     transform="translate(-221.46893,-152.39755)"
     id="layer1">
    <g
       transform="matrix(0.26458333,0,0,0.26458333,136.45625,147.95751)"
       id="g891">
      <g
         id="g834">
	
	
<path
   d="m 324.0065,26.305317 a 0.22868117,0.22868117 0 0 0 -3.6e-4,0.138078 c 0.17294,0.551655 0.43088,1.072982 0.76458,1.545082 a 0.22868117,0.22868117 0 0 0 0.31869,0.05471 0.22868117,0.22868117 0 0 0 0.0548,-0.318858 c -0.30623,-0.433244 -0.54287,-0.911579 -0.70157,-1.417828 a 0.22868117,0.22868117 0 0 0 -0.28662,-0.149668 0.22868117,0.22868117 0 0 0 -0.14948,0.148486 z m -2.06403,0.49587 a 0.22868117,0.22868117 0 0 0 -0.004,0.138164 c 0.18441,0.646193 0.45626,1.264118 0.80781,1.836822 a 0.22868117,0.22868117 0 0 0 0.31446,0.07535 0.22868117,0.22868117 0 0 0 0.0752,-0.314694 c -0.32977,-0.537241 -0.58476,-1.116878 -0.75776,-1.723057 a 0.22868117,0.22868117 0 0 0 -0.28255,-0.157151 0.22868117,0.22868117 0 0 0 -0.15323,0.144559 z m 1.01785,-0.140441 a 0.22868117,0.22868117 0 0 0 2e-4,0.138082 c 0.23853,0.750477 0.60816,1.452615 1.09191,2.073987 a 0.22868117,0.22868117 0 0 0 0.32089,0.03998 0.22868117,0.22868117 0 0 0 0.04,-0.320892 c -0.45054,-0.578708 -0.79471,-1.232722 -1.01687,-1.93167 a 0.22868117,0.22868117 0 0 0 -0.28737,-0.1486 0.22868117,0.22868117 0 0 0 -0.14874,0.149112 z m 6.54296,3.633426 a 0.22868117,0.22868117 0 0 0 0.13388,0.03378 c 0.57712,-0.03421 1.14538,-0.158252 1.68423,-0.367704 a 0.22868117,0.22868117 0 0 0 0.13025,-0.29596 0.22868117,0.22868117 0 0 0 -0.29611,-0.130343 c -0.4945,0.192212 -1.0159,0.305988 -1.54551,0.33739 a 0.22868117,0.22868117 0 0 0 -0.21471,0.242003 0.22868117,0.22868117 0 0 0 0.10797,0.180834 z m -0.0186,2.12268 a 0.22868117,0.22868117 0 0 0 0.1331,0.03731 c 0.67161,-0.02246 1.33687,-0.136451 1.97766,-0.338862 a 0.22868117,0.22868117 0 0 0 0.14935,-0.287013 0.22868117,0.22868117 0 0 0 -0.28711,-0.149203 c -0.6011,0.189877 -1.22523,0.296929 -1.85526,0.317997 a 0.22868117,0.22868117 0 0 0 -0.22089,0.236093 0.22868117,0.22868117 0 0 0 0.10315,0.183677 z m 0.1102,-1.021565 a 0.22868117,0.22868117 0 0 0 0.13392,0.03338 c 0.7859,-0.04972 1.55675,-0.238484 2.27676,-0.557382 a 0.22868117,0.22868117 0 0 0 0.11649,-0.301661 0.22868117,0.22868117 0 0 0 -0.30166,-0.116489 c -0.67058,0.297002 -1.38857,0.472733 -2.12051,0.51904 a 0.22868117,0.22868117 0 0 0 -0.21366,0.242681 0.22868117,0.22868117 0 0 0 0.10866,0.180427 z m 5.00537,-5.056892 a 0.22868117,0.22868117 0 0 0 0.0745,-0.116206 c 0.14992,-0.558351 0.21171,-1.136835 0.18328,-1.714261 a 0.22868117,0.22868117 0 0 0 -0.23963,-0.217103 0.22868117,0.22868117 0 0 0 -0.2171,0.239633 c 0.0261,0.5299 -0.0307,1.060675 -0.1682,1.573068 a 0.22868117,0.22868117 0 0 0 0.16149,0.280159 0.22868117,0.22868117 0 0 0 0.20569,-0.04529 z m 2.00814,0.688401 a 0.22868117,0.22868117 0 0 0 0.0773,-0.114367 c 0.19093,-0.644296 0.29317,-1.311602 0.30362,-1.983512 a 0.22868117,0.22868117 0 0 0 -0.22513,-0.232151 0.22868117,0.22868117 0 0 0 -0.23226,0.224994 c -0.0101,0.630302 -0.10562,1.25639 -0.28473,1.860787 a 0.22868117,0.22868117 0 0 0 0.15443,0.28421 0.22868117,0.22868117 0 0 0 0.20675,-0.03996 z m -0.93441,-0.427131 a 0.22868117,0.22868117 0 0 0 0.074,-0.116764 c 0.20119,-0.76134 0.2657,-1.552327 0.19068,-2.336221 a 0.22868117,0.22868117 0 0 0 -0.24939,-0.20585 0.22868117,0.22868117 0 0 0 -0.20584,0.249389 c 0.0698,0.73007 0.0101,1.466797 -0.17769,2.175862 a 0.22868117,0.22868117 0 0 0 0.16258,0.279514 0.22868117,0.22868117 0 0 0 0.20564,-0.04593 z m -3.07104,-6.242881 a 0.22868117,0.22868117 0 0 0 -0.0832,-0.11013 c -0.4718,-0.334129 -0.99301,-0.592582 -1.54451,-0.766032 a 0.22868117,0.22868117 0 0 0 -0.28669,0.149539 0.22868117,0.22868117 0 0 0 0.1496,0.286866 c 0.5061,0.159174 0.98432,0.396326 1.41728,0.702954 a 0.22868117,0.22868117 0 0 0 0.31871,-0.05456 0.22868117,0.22868117 0 0 0 0.0289,-0.208635 z m 1.34175,-1.644937 a 0.22868117,0.22868117 0 0 0 -0.0805,-0.112163 c -0.53819,-0.402397 -1.12872,-0.729556 -1.75535,-0.972234 a 0.22868117,0.22868117 0 0 0 -0.29585,0.130554 0.22868117,0.22868117 0 0 0 0.13061,0.296013 c 0.58784,0.227652 1.14186,0.534338 1.64673,0.911816 a 0.22868117,0.22868117 0 0 0 0.32018,-0.0462 0.22868117,0.22868117 0 0 0 0.0341,-0.207786 z m -0.72455,0.728305 a 0.22868117,0.22868117 0 0 0 -0.0838,-0.109734 c -0.64443,-0.452578 -1.36404,-0.787223 -2.12535,-0.988529 a 0.22868117,0.22868117 0 0 0 -0.27952,0.162592 0.22868117,0.22868117 0 0 0 0.1626,0.279524 c 0.70903,0.187483 1.37924,0.499255 1.97943,0.920758 a 0.22868117,0.22868117 0 0 0 0.31847,-0.05581 0.22868117,0.22868117 0 0 0 0.0281,-0.208804 z m -7.06832,0.816929 a 0.22868117,0.22868117 0 0 0 -0.13078,0.04431 c -0.46609,0.342021 -0.87602,0.75467 -1.21486,1.223087 a 0.22868117,0.22868117 0 0 0 0.0512,0.319261 0.22868117,0.22868117 0 0 0 0.31926,-0.0511 c 0.31096,-0.429863 0.68708,-0.808633 1.11483,-1.122503 a 0.22868117,0.22868117 0 0 0 0.0491,-0.319617 0.22868117,0.22868117 0 0 0 -0.18884,-0.09343 z m -1.13661,-1.792825 a 0.22868117,0.22868117 0 0 0 -0.13204,0.04092 c -0.55184,0.383444 -1.04867,0.840493 -1.47695,1.35833 a 0.22868117,0.22868117 0 0 0 0.0304,0.32194 0.22868117,0.22868117 0 0 0 0.32194,-0.03055 c 0.40175,-0.48577 0.86799,-0.914304 1.38566,-1.274004 a 0.22868117,0.22868117 0 0 0 0.0574,-0.318367 0.22868117,0.22868117 0 0 0 -0.18634,-0.09826 z m 0.462,0.917762 a 0.22868117,0.22868117 0 0 0 -0.13059,0.04484 c -0.63305,0.46838 -1.17813,1.045177 -1.60971,1.703854 a 0.22868117,0.22868117 0 0 0 0.0661,0.316758 0.22868117,0.22868117 0 0 0 0.31659,-0.0661 c 0.40194,-0.61345 0.90936,-1.150613 1.49893,-1.586833 a 0.22868117,0.22868117 0 0 0 0.0479,-0.319974 0.22868117,0.22868117 0 0 0 -0.1892,-0.09254 z m 1.63026,-2.473151 c -0.38903,-1e-6 -0.80306,0.106636 -1.2306,0.317114 -0.47172,0.232432 -1.14885,0.714802 -1.51089,0.981901 -0.0926,0.0686 -0.15227,0.113729 -0.16151,0.120772 -0.21295,0.161906 -0.33303,0.418113 -0.32123,0.686401 0.003,0.05818 0.0136,0.1149 0.0282,0.170439 0.28585,-0.275302 0.5929,-0.528398 0.91955,-0.755363 0.0543,-0.0377 0.11869,-0.05778 0.18473,-0.05735 0.10401,6.86e-4 0.20148,0.05215 0.26084,0.137565 0.10032,0.144313 0.0641,0.345283 -0.0802,0.445571 -0.33858,0.23526 -0.65418,0.50092 -0.94438,0.792523 l 0.22957,0.313187 c 0.25082,-0.256492 0.52105,-0.494162 0.81057,-0.708377 v 1.76e-4 c 0.053,-0.03926 0.117,-0.0613 0.18295,-0.06288 0.10401,-0.0024 0.20286,0.04591 0.26477,0.129526 l 1.8e-4,5e-6 c 0.10463,0.141321 0.0742,0.343567 -0.0672,0.448073 -0.29046,0.214923 -0.56074,0.454789 -0.80789,0.716414 l 0.27924,0.380897 c 0.24914,-0.27186 0.52461,-0.519098 0.82273,-0.737854 0.0531,-0.03904 0.11717,-0.06068 0.18312,-0.06199 0.10406,-0.002 0.20287,0.04683 0.26441,0.130777 0.10391,0.141689 0.0729,0.343596 -0.0688,0.447536 -0.29874,0.219217 -0.57127,0.471198 -0.81396,0.750003 l 1.33011,1.814263 c -0.84773,-0.233161 -1.60273,-0.375022 -2.25966,-0.426454 -0.12263,0.307075 -0.21512,0.625915 -0.27621,0.951884 a 0.22868117,0.22868117 0 0 1 -0.26691,0.182767 0.22868117,0.22868117 0 0 1 -0.18455,-0.194379 0.22868117,0.22868117 0 0 1 0.002,-0.07271 c 0.0568,-0.303244 0.13956,-0.600385 0.24546,-0.889176 -0.016,-1.29e-4 -0.0331,-0.0012 -0.0489,-0.0012 -0.23019,0 -0.44623,0.0147 -0.64942,0.04252 -0.16561,0.5234 -0.26132,1.067284 -0.28389,1.617384 a 0.22868117,0.22868117 0 0 1 -0.23779,0.219035 0.22868117,0.22868117 0 0 1 -0.21779,-0.201348 0.22868117,0.22868117 0 0 1 -0.001,-0.03663 c 0.0208,-0.50557 0.0995,-1.005987 0.23315,-1.492144 -0.24283,0.07099 -0.45996,0.167486 -0.65121,0.289067 -0.0673,0.319489 -0.11252,0.643591 -0.13417,0.970109 a 0.22868117,0.22868117 0 0 1 -0.24351,0.212958 0.22868117,0.22868117 0 0 1 -0.21242,-0.206884 l -2e-4,-4e-6 a 0.22868117,0.22868117 0 0 1 -3.5e-4,-0.03644 c 0.009,-0.144206 0.0242,-0.287937 0.0422,-0.4311 -0.35361,0.478597 -0.47883,1.097009 -0.37143,1.841777 0.10002,0.691258 0.51449,1.881074 0.53187,1.930927 0.0658,0.188701 0.19673,0.34145 0.36213,0.437173 -0.15503,-0.33984 -0.28548,-0.690846 -0.38822,-1.050861 -0.0181,-0.0635 -0.0163,-0.130966 0.005,-0.193307 0.0342,-0.09827 0.11449,-0.174077 0.21457,-0.202597 0.16895,-0.04813 0.34714,0.05119 0.39537,0.220105 0.12568,0.440385 0.29556,0.866486 0.50614,1.272218 l 0.36821,-0.121486 c -0.18819,-0.355577 -0.34484,-0.727723 -0.46719,-1.112678 l 1.9e-4,4e-6 c -0.02,-0.06286 -0.0201,-0.130567 -3.5e-4,-0.193485 0.0313,-0.09922 0.10898,-0.177126 0.20813,-0.208671 0.16752,-0.05338 0.34924,0.04041 0.40252,0.207956 0.12182,0.383279 0.28213,0.752134 0.47576,1.102851 l 0.44842,-0.147928 c -0.20228,-0.353262 -0.36707,-0.727187 -0.48915,-1.116607 -0.0197,-0.06294 -0.0193,-0.130471 7.1e-4,-0.193307 0.0318,-0.09912 0.10987,-0.176869 0.20921,-0.207957 0.16763,-0.05259 0.34862,0.04195 0.40127,0.209566 0.12135,0.387106 0.28961,0.757317 0.49987,1.103207 l 2.40598,-0.793237 c -0.002,0.0034 -0.005,0.0069 -0.007,0.01037 -0.54388,0.82669 -0.93696,1.565672 -1.18522,2.225533 0.18568,0.141782 0.38058,0.271477 0.58457,0.386791 a 0.22868117,0.22868117 0 0 1 0.0866,0.311758 0.22868117,0.22868117 0 0 1 -0.31157,0.08665 c -0.17679,-0.09993 -0.34733,-0.209864 -0.51168,-0.328193 -0.0689,0.240074 -0.117,0.468749 -0.14239,0.685685 0.35943,0.234399 0.7422,0.432275 1.14376,0.588141 a 0.22868117,0.22868117 0 0 1 0.13042,0.296034 0.22868117,0.22868117 0 0 1 -0.29586,0.130419 c -0.34613,-0.134349 -0.67929,-0.298132 -0.99708,-0.487376 0.0129,0.22627 0.0539,0.438214 0.1231,0.636019 0.0112,0.03193 0.0234,0.06452 0.0368,0.09737 0.14353,0.07203 0.28961,0.139191 0.43807,0.201169 a 0.22868117,0.22868117 0 0 1 0.12291,0.299071 0.22868117,0.22868117 0 0 1 -0.14918,0.132028 c 0.29917,0.308702 0.75541,0.578872 1.45142,0.698907 0.3624,0.06248 0.91483,0.09415 1.64203,0.09415 0.21515,0 0.35867,-0.0032 0.35838,-0.0032 0.18438,-0.0038 0.35369,-0.07069 0.48882,-0.178658 -0.27225,0.03943 -0.54663,0.06457 -0.82218,0.07379 -0.066,0.0022 -0.13094,-0.01596 -0.18617,-0.05217 -0.0871,-0.05706 -0.14109,-0.153077 -0.14453,-0.257088 -0.006,-0.175569 0.13369,-0.324627 0.30926,-0.330516 0.38783,-0.01297 0.77332,-0.05911 1.15252,-0.137387 l -0.002,-0.392153 c -0.33392,0.07306 -0.6732,0.122153 -1.01567,0.14382 l -1.9e-4,-4e-6 c -0.0658,0.0042 -0.13123,-0.01212 -0.18741,-0.04663 -0.0887,-0.0544 -0.14544,-0.148785 -0.15204,-0.252621 l -1.9e-4,-4e-6 c -0.0111,-0.175328 0.12392,-0.32862 0.29925,-0.339806 v -1.75e-4 c 0.35581,-0.02251 0.70818,-0.07628 1.05337,-0.159898 l -0.002,-0.477908 c -0.36043,0.09483 -0.72979,0.154214 -1.10285,0.176335 -0.0658,0.0039 -0.13131,-0.01265 -0.18742,-0.04734 -0.0885,-0.05473 -0.14493,-0.149302 -0.15114,-0.253157 -0.0105,-0.175504 0.12517,-0.32831 0.30068,-0.338736 0.38632,-0.02291 0.76799,-0.09078 1.13787,-0.201345 l -0.0109,-2.520853 c 0.59715,0.747487 1.15984,1.335262 1.69385,1.77228 0.21777,-0.165772 0.42259,-0.348592 0.61154,-0.547763 a 0.22868117,0.22868117 0 0 1 0.32337,-0.0084 0.22868117,0.22868117 0 0 1 0.008,0.32319 c -0.17719,0.186777 -0.36759,0.359894 -0.56831,0.519893 0.20031,0.14026 0.3962,0.256007 0.5885,0.35124 0.38192,-0.329523 0.72389,-0.703666 1.01584,-1.117144 a 0.22868117,0.22868117 0 0 1 0.31891,-0.05503 0.22868117,0.22868117 0 0 1 0.0549,0.318724 c -0.26897,0.380907 -0.57751,0.730888 -0.91848,1.046394 0.23586,0.07373 0.46594,0.111707 0.69068,0.114341 0.20168,-0.20964 0.39079,-0.431457 0.56492,-0.665319 a 0.22868117,0.22868117 0 0 1 0.32015,-0.04681 0.22868117,0.22868117 0 0 1 0.0467,0.320154 c -0.0668,0.08981 -0.13645,0.177317 -0.20723,0.263876 0.42646,-0.160648 0.91001,-0.508332 1.29383,-1.237201 0.32756,-0.621829 0.69016,-1.824164 0.70516,-1.874292 0.0947,-0.313066 -0.0118,-0.642772 -0.24405,-0.847907 -0.0498,0.422859 -0.13584,0.841137 -0.25709,1.250243 -0.0187,0.06324 -0.0566,0.119316 -0.10826,0.160255 -0.0816,0.06454 -0.18967,0.08525 -0.28942,0.05574 -0.16857,-0.04984 -0.26608,-0.229146 -0.21619,-0.39769 0.12944,-0.436735 0.21421,-0.88506 0.25442,-1.337964 l -0.37375,-0.1197 c -0.0313,0.406988 -0.0988,0.811156 -0.20349,1.207364 l -1.5e-4,-1.63e-4 c -0.0168,0.06386 -0.053,0.120986 -0.10361,0.163472 v 1.74e-4 c -0.0797,0.06693 -0.18739,0.09079 -0.288,0.06414 -0.16985,-0.04495 -0.27233,-0.221394 -0.22743,-0.391259 0.10779,-0.407942 0.17136,-0.825419 0.19313,-1.24524 l -0.457,-0.146321 c -0.0132,0.437011 -0.0768,0.871547 -0.19045,1.294728 l -1.6e-4,1.87e-4 c -0.0172,0.06366 -0.0534,0.120388 -0.10416,0.162578 -0.0799,0.06665 -0.1875,0.09036 -0.28799,0.06342 -0.16969,-0.04561 -0.27158,-0.222458 -0.22601,-0.392152 0.11676,-0.434881 0.17388,-0.883322 0.1708,-1.332961 l -2.11959,-0.678719 0.0117,-0.0045 c 0.77373,-0.291793 1.42527,-0.596126 1.96291,-0.914546 -0.0898,-0.267355 -0.20093,-0.527437 -0.3341,-0.77698 a 0.22868117,0.22868117 0 0 1 -0.0261,-0.08719 0.22868117,0.22868117 0 0 1 0.12006,-0.222251 0.22868117,0.22868117 0 0 1 0.30961,0.09415 c 0.12764,0.239186 0.23666,0.48737 0.32784,0.741786 0.19871,-0.135739 0.3752,-0.274443 0.53401,-0.415557 -0.19563,-0.492488 -0.45295,-0.958932 -0.76805,-1.387094 a 0.22868117,0.22868117 0 0 1 -0.0427,-0.106481 0.22868117,0.22868117 0 0 1 0.0913,-0.213317 0.22868117,0.22868117 0 0 1 0.31962,0.04859 c 0.29946,0.406901 0.55045,0.846153 0.75,1.308308 0.15268,-0.175692 0.27714,-0.355484 0.37304,-0.539903 -0.15771,-0.323804 -0.33958,-0.635648 -0.54615,-0.931697 a 0.22868117,0.22868117 0 0 1 -0.04,-0.107552 0.22868117,0.22868117 0 0 1 0.0967,-0.210994 0.22868117,0.22868117 0 0 1 0.31837,0.05664 c 0.1363,0.195345 0.26233,0.39743 0.37893,0.604575 0.10364,-0.536408 0.0228,-1.27934 -0.74661,-2.070278 -0.48608,-0.499623 -1.52203,-1.2197 -1.56539,-1.249887 -0.13722,-0.09532 -0.29794,-0.145605 -0.46469,-0.145605 -0.21694,0 -0.42319,0.0882 -0.57456,0.238686 0.43509,0.209314 0.84979,0.459629 1.2372,0.749288 0.0528,0.03948 0.0922,0.09436 0.11273,0.15704 0.0323,0.09889 0.0142,0.207509 -0.0481,0.290854 -0.10522,0.140779 -0.30732,0.169898 -0.44808,0.06467 -0.38808,-0.29016 -0.80579,-0.537057 -1.2456,-0.738568 l -0.22832,0.317116 c 0.3944,0.176122 0.77226,0.388768 1.12715,0.637985 l 1.9e-4,4e-6 c 0.054,0.03789 0.0951,0.09162 0.11738,0.153646 0.0351,0.09797 0.0204,0.20732 -0.0395,0.292461 -0.10103,0.143664 -0.30198,0.178931 -0.44575,0.07808 l -1.9e-4,-4e-6 c -0.35752,-0.251081 -0.74063,-0.46193 -1.1418,-0.630839 l -0.27835,0.386436 c 0.4139,0.165084 0.80739,0.378645 1.17181,0.636733 l 1.3e-4,1.64e-4 c 0.0538,0.03816 0.0943,0.09185 0.11631,0.154002 l 2e-4,4e-6 c 0.0348,0.09804 0.0197,0.207171 -0.0404,0.292106 -0.10152,0.143392 -0.30286,0.177745 -0.44629,0.07629 -0.36687,-0.259829 -0.76704,-0.468497 -1.18914,-0.621369 l -1.20861,1.678664 c -0.0366,-0.786024 -0.11982,-1.476495 -0.24744,-2.072424 -0.30437,-0.01315 -0.6097,-6.2e-5 -0.91241,0.04145 a 0.22868117,0.22868117 0 0 1 -0.25762,-0.195451 0.22868117,0.22868117 0 0 1 0.19563,-0.257623 c 0.28603,-0.03923 0.57425,-0.05591 0.86202,-0.05038 -0.0653,-0.233902 -0.13957,-0.448499 -0.22154,-0.64656 -0.54187,0.01002 -1.08093,0.09068 -1.60326,0.241187 a 0.22868117,0.22868117 0 0 1 -0.283,-0.156504 0.22868117,0.22868117 0 0 1 -0.007,-0.0302 0.22868117,0.22868117 0 0 1 0.16294,-0.2528 c 0.49385,-0.142297 1.00172,-0.225558 1.51323,-0.251013 -0.11055,-0.195263 -0.2318,-0.367045 -0.36447,-0.513461 -0.007,-0.0083 -0.0154,-0.01611 -0.0231,-0.02429 -0.36372,0.03539 -0.72452,0.09867 -1.07891,0.191162 a 0.22868117,0.22868117 0 0 1 -0.27907,-0.163649 0.22868117,0.22868117 0 0 1 -0.006,-0.0302 0.22868117,0.22868117 0 0 1 0.16936,-0.248691 c 0.2324,-0.06066 0.46742,-0.109356 0.70409,-0.147033 -0.30837,-0.182255 -0.65349,-0.276563 -1.02156,-0.276561 z m 2.2007,5.61966 a 2.2526341,2.2526341 0 0 1 2.25268,2.252689 2.2526341,2.2526341 0 0 1 -2.25268,2.252509 2.2526341,2.2526341 0 0 1 -2.25251,-2.252509 2.2526341,2.2526341 0 0 1 2.25251,-2.252689 z"
   style="color:#000000;font-style:normal;font-variant:normal;font-weight:normal;font-stretch:normal;font-size:medium;line-height:normal;font-family:sans-serif;font-variant-ligatures:normal;font-variant-position:normal;font-variant-caps:normal;font-variant-numeric:normal;font-variant-alternates:normal;font-variant-east-asian:normal;font-feature-settings:normal;font-variation-settings:'wght' 400;text-indent:0;text-align:start;text-decoration:none;text-decoration-line:none;text-decoration-style:solid;text-decoration-color:#000000;letter-spacing:normal;word-spacing:normal;text-transform:none;writing-mode:lr-tb;direction:ltr;text-orientation:mixed;dominant-baseline:auto;baseline-shift:baseline;text-anchor:start;white-space:normal;shape-padding:0;shape-margin:0;inline-size:0;clip-rule:nonzero;display:inline;overflow:visible;visibility:visible;opacity:1;isolation:auto;mix-blend-mode:normal;color-interpolation:sRGB;color-interpolation-filters:linearRGB;solid-color:#000000;solid-opacity:1;vector-effect:none;fill:#ffffff;fill-opacity:1;fill-rule:nonzero;stroke:none;stroke-width:2;stroke-linecap:round;stroke-linejoin:bevel;stroke-miterlimit:4;stroke-dasharray:none;stroke-dashoffset:0;stroke-opacity:1;paint-order:stroke fill markers;color-rendering:auto;image-rendering:auto;shape-rendering:auto;text-rendering:auto;enable-background:accumulate;stop-color:#000000;stop-opacity:1"
   id="path1018" />
<g
   style="opacity:1;fill:#ffffff"
   id="g1190" />
<g
   style="opacity:1;fill:#ffffff"
   id="g1184" />
<g
   style="opacity:1;fill:#ffffff"
   id="g1178" />
<g
   style="opacity:1;fill:#ffffff"
   transform="rotate(71.577566)"
   id="g1172" />
<g
   style="opacity:1;fill:#ffffff"
   transform="rotate(71.577566)"
   id="g1166" />
<g
   style="opacity:1;fill:#ffffff"
   transform="rotate(71.577566)"
   id="g1160" />
<g
   style="opacity:1;fill:#ffffff"
   transform="rotate(141.29995)"
   id="g1154" />
<g
   style="opacity:1;fill:#ffffff"
   transform="rotate(141.29995)"
   id="g1148" />
<g
   style="opacity:1;fill:#ffffff"
   transform="rotate(141.29995)"
   id="g1142" />
<g
   style="opacity:1;fill:#ffffff"
   transform="rotate(-147.12249)"
   id="g1136" />
<g
   style="opacity:1;fill:#ffffff"
   transform="rotate(-147.12249)"
   id="g1130" />
<g
   style="opacity:1;fill:#ffffff"
   transform="rotate(-147.12249)"
   id="g1124" />
<g
   style="opacity:1;fill:#ffffff"
   transform="rotate(-71.134982)"
   id="g1118" />
<g
   style="opacity:1;fill:#ffffff"
   transform="rotate(-71.134982)"
   id="g1112" />
<g
   style="opacity:1;fill:#00796b"
   transform="rotate(-71.134982)"
   id="g1106" />
</g>
      <g
         id="g836">
</g>
      <g
         id="g838">
</g>
      <g
         id="g840">
</g>
      <g
         id="g842">
</g>
      <g
         id="g844">
</g>
      <g
         id="g846">
</g>
      <g
         id="g848">
</g>
      <g
         id="g850">
</g>
      <g
         id="g852">
</g>
      <g
         id="g854">
</g>
      <g
         id="g856">
</g>
      <g
         id="g858">
</g>
      <g
         id="g860">
</g>
      <g
         id="g862">
</g>
      <g
         id="g864">
</g>
    </g>
  </g>
</svg>
